{
  "job_name": "sys/dashboard/sys/jupyter-singularity-bc",
  "workdir": "/hpc/home/sf282/ondemand/data/sys/dashboard/batch_connect/sys/jupyter-singularity-bc/output/48181f82-3b35-4f88-87ec-5afb8ed3e0c5",
  "output_path": "/hpc/home/sf282/ondemand/data/sys/dashboard/batch_connect/sys/jupyter-singularity-bc/output/48181f82-3b35-4f88-87ec-5afb8ed3e0c5/output.log",
  "shell_path": "/bin/bash",
  "wall_time": 7200,
  "native": [
    "--account",
    "codeplus22-vis",
    "--nodes",
    "1",
    "--ntasks",
    "1",
    "--cpus-per-task",
    "2",
    "--mem",
    "2G"
  ],
  "queue_name": "common"
}